================================================================================
Supported display modes for NV_DISP.INF               Version 280.35, 08/17/2011
================================================================================

Format:
[INFSectionName]
  ////////////////////////////////////////////////////////////////////
  // PCI ID(hex) - Device Name
  ////////////////////////////////////////////////////////////////////
  ; Spanning Type
    XRes x YRes  bpp  refresh1 refresh2 refresh3 ...

================================================================================

[nv_commonDisplayModes_addreg]

  ////////////////////////////////////////////////////////////////////
  // 0040 - NVIDIA GeForce 6800 Ultra/GeForce 6800 Series GPU
  // 0041 - NVIDIA GeForce 6800
  // 0042 - NVIDIA GeForce 6800 LE
  // 0043 - NVIDIA GeForce 6800 XE
  // 0044 - NVIDIA GeForce 6800 XT
  // 0045 - NVIDIA GeForce 6800 GT
  // 0046 - NVIDIA GeForce 6800 GT
  // 0047 - NVIDIA GeForce 6800 GS
  // 0048 - NVIDIA GeForce 6800 XT
  // 004D - NVIDIA Quadro FX 3400/4400
  // 004E - NVIDIA Quadro FX 4000
  // 0090 - NVIDIA GeForce 7800 GTX
  // 0091 - NVIDIA GeForce 7800 GTX
  // 0092 - NVIDIA GeForce 7800 GT
  // 0093 - NVIDIA GeForce 7800 GS
  // 0095 - NVIDIA GeForce 7800 SLI
  // 009D - NVIDIA Quadro FX 4500
  // 00C0 - NVIDIA GeForce 6800 GS/GeForce 6800 GS/XT
  // 00C1 - NVIDIA GeForce 6800
  // 00C2 - NVIDIA GeForce 6800 LE
  // 00C3 - NVIDIA GeForce 6800 XT
  // 00CD - NVIDIA Quadro FX 3450/4000 SDI
  // 00CE - NVIDIA Quadro FX 1400
  // 0140 - NVIDIA GeForce 6600 GT
  // 0141 - NVIDIA GeForce 6600
  // 0142 - NVIDIA GeForce 6600 LE
  // 0143 - NVIDIA GeForce 6600 VE
  // 0145 - NVIDIA GeForce 6610 XL
  // 0147 - NVIDIA GeForce 6700 XL
  // 014A - NVIDIA Quadro NVS 440
  // 014C - NVIDIA Quadro FX 540M
  // 014D - NVIDIA Quadro FX 550
  // 014E - NVIDIA Quadro FX 540
  // 014F - NVIDIA GeForce 6200
  // 0160 - NVIDIA GeForce 6500
  // 0161 - NVIDIA GeForce 6200 TurboCache(TM)
  // 0162 - NVIDIA GeForce 6200SE TurboCache(TM)
  // 0163 - NVIDIA GeForce 6200 LE
  // 0165 - NVIDIA Quadro NVS 285
  // 0169 - NVIDIA GeForce 6250
  // 016A - NVIDIA GeForce 7100 GS
  // 01D0 - NVIDIA GeForce 7350 LE
  // 01D1 - NVIDIA GeForce 7300 LE
  // 01D3 - NVIDIA GeForce 7300 SE/7200 GS
  // 01DB - NVIDIA Quadro NVS 120M
  // 01DD - NVIDIA GeForce 7500 LE
  // 01DE - NVIDIA Quadro FX 350
  // 01DF - NVIDIA GeForce 7300 GS
  // 0211 - NVIDIA GeForce 6800
  // 0212 - NVIDIA GeForce 6800 LE
  // 0215 - NVIDIA GeForce 6800 GT
  // 0218 - NVIDIA GeForce 6800 XT
  // 0221 - NVIDIA GeForce 6200
  // 0222 - NVIDIA GeForce 6200 A-LE
  // 0240 - NVIDIA GeForce 6150
  // 0241 - NVIDIA GeForce 6150 LE
  // 0242 - NVIDIA GeForce 6100
  // 0245 - NVIDIA Quadro NVS 210S / NVIDIA GeForce 6150LE
  // 0290 - NVIDIA GeForce 7900 GTX
  // 0291 - NVIDIA GeForce 7900 GT/GTO
  // 0292 - NVIDIA GeForce 7900 GS
  // 0293 - NVIDIA GeForce 7950 GX2
  // 0294 - NVIDIA GeForce 7950 GX2
  // 0295 - NVIDIA GeForce 7950 GT
  // 029C - NVIDIA Quadro FX 5500
  // 029D - NVIDIA Quadro FX 3500
  // 029E - NVIDIA Quadro FX 1500
  // 029F - NVIDIA Quadro FX 4500 X2
  // 0390 - NVIDIA GeForce 7650 GS
  // 0391 - NVIDIA GeForce 7600 GT
  // 0392 - NVIDIA GeForce 7600 GS
  // 0393 - NVIDIA GeForce 7300 GT
  // 0394 - NVIDIA GeForce 7600 LE
  // 0395 - NVIDIA GeForce 7300 GT
  // 039E - NVIDIA Quadro FX 560
  // 03D0 - NVIDIA GeForce 6150SE nForce 430
  // 03D1 - NVIDIA GeForce 6100 nForce 405
  // 03D2 - NVIDIA GeForce 6100 nForce 400
  // 03D5 - NVIDIA GeForce 6100 nForce 420
  // 03D6 - NVIDIA GeForce 7025 / NVIDIA nForce 630a
  // 053A - NVIDIA GeForce 7050 PV / NVIDIA nForce 630a
  // 053B - NVIDIA GeForce 7050 PV / NVIDIA nForce 630a
  // 053E - NVIDIA GeForce 7025 / NVIDIA nForce 630a
  // 07E0 - NVIDIA GeForce 7150 / NVIDIA nForce 630i
  // 07E1 - NVIDIA GeForce 7100 / NVIDIA nForce 630i
  // 07E2 - NVIDIA GeForce 7050 / NVIDIA nForce 630i
  // 07E3 - NVIDIA GeForce 7050 / NVIDIA nForce 610i
  // 07E5 - NVIDIA GeForce 7050 / NVIDIA nForce 620i
  ////////////////////////////////////////////////////////////////////

  ; Standard Modes

     640 x  480   8      60 70 72 75 85 100 120 140 144 150 170 200 240
     720 x  480   8      60
     720 x  576   8   50
     800 x  600   8      60 70 72 75 85 100 120 140 144 150 170 200 240
    1024 x  768   8      60 70 72 75 85 100 120 140 144 150 170 200 240
    1152 x  864   8      60 70 72 75 85 100 120 140 144 150 170 200
    1280 x  720   8      60
    1280 x  768   8      60 70 72 75 85 100 120 140 144 150 170
    1280 x  800   8      60 70 72 75 85 100 120 140 144 150 170
    1280 x  960   8      60 70 72 75 85 100 120 140 144 150 170
    1280 x 1024   8      60 70 72 75 85 100 120 140 144 150 170
    1360 x  768   8      60 70 72 75 85 100 120 140 144 150 170
    1600 x  900   8      60 70 72 75 85 100 120 140 144 150
    1600 x 1024   8      60 70 72 75 85 100 120
    1600 x 1200   8      60 70 72 75 85 100 120
    1680 x 1050   8      60
    1920 x 1080   8      60
    1920 x 1200   8      60 70 72 75 85 100
    1920 x 1440   8      60 70 72 75 85
    2048 x 1536   8      60
    ------------------------------------------------------------------
     640 x  480  16      60 70 72 75 85 100 120 140 144 150 170 200 240
     720 x  480  16      60
     720 x  576  16   50
     800 x  600  16      60 70 72 75 85 100 120 140 144 150 170 200 240
    1024 x  768  16      60 70 72 75 85 100 120 140 144 150 170 200 240
    1152 x  864  16      60 70 72 75 85 100 120 140 144 150 170 200
    1280 x  720  16      60
    1280 x  768  16      60 70 72 75 85 100 120 140 144 150 170
    1280 x  800  16      60 70 72 75 85 100 120 140 144 150 170
    1280 x  960  16      60 70 72 75 85 100 120 140 144 150 170
    1280 x 1024  16      60 70 72 75 85 100 120 140 144 150 170
    1360 x  768  16      60 70 72 75 85 100 120 140 144 150 170
    1600 x  900  16      60 70 72 75 85 100 120 140 144 150
    1600 x 1024  16      60 70 72 75 85 100 120
    1600 x 1200  16      60 70 72 75 85 100 120
    1680 x 1050  16      60
    1920 x 1080  16      60
    1920 x 1200  16      60 70 72 75 85 100
    1920 x 1440  16      60 70 72 75 85
    2048 x 1536  16      60
    ------------------------------------------------------------------
     640 x  480  32      60 70 72 75 85 100 120 140 144 150 170 200 240
     720 x  480  32      60
     720 x  576  32   50
     800 x  600  32      60 70 72 75 85 100 120 140 144 150 170 200 240
    1024 x  768  32      60 70 72 75 85 100 120 140 144 150 170 200 240
    1152 x  864  32      60 70 72 75 85 100 120 140 144 150 170 200
    1280 x  720  32      60
    1280 x  768  32      60 70 72 75 85 100 120 140 144 150 170
    1280 x  800  32      60 70 72 75 85 100 120 140 144 150 170
    1280 x  960  32      60 70 72 75 85 100 120 140 144 150 170
    1280 x 1024  32      60 70 72 75 85 100 120 140 144 150 170
    1360 x  768  32      60 70 72 75 85 100 120 140 144 150 170
    1600 x  900  32      60 70 72 75 85 100 120 140 144 150
    1600 x 1024  32      60 70 72 75 85 100 120
    1600 x 1200  32      60 70 72 75 85 100 120
    1680 x 1050  32      60
    1920 x 1080  32      60
    1920 x 1200  32      60 70 72 75 85 100
    1920 x 1440  32      60 70 72 75 85
    2048 x 1536  32      60

  ; Horizontal Spanning Modes

    1280 x  480   8      60 70 72 75 85 100 120 140 144 150 170 200 240
    1600 x  600   8      60 70 72 75 85 100 120 140 144 150 170 200 240
    2048 x  768   8      60 70 72 75 85 100 120 140 144 150 170 200 240
    2304 x  864   8      60 70 72 75 85 100 120 140 144 150 170 200
    2560 x  720   8      60
    2560 x  768   8      60 70 72 75 85 100 120 140 144 150 170
    2560 x  800   8      60 70 72 75 85 100 120 140 144 150 170
    2560 x  960   8      60 70 72 75 85 100 120 140 144 150 170
    2560 x 1024   8      60 70 72 75 85 100 120 140 144 150 170
    2720 x  768   8      60 70 72 75 85 100 120 140 144 150 170
    3200 x  900   8      60 70 72 75 85 100 120 140 144 150
    3200 x 1024   8      60 70 72 75 85 100 120
    3200 x 1200   8      60 70 72 75 85 100 120
    3360 x 1050   8      60
    3840 x 1080   8      60
    3840 x 1200   8      60 70 72 75 85 100
    3840 x 1440   8      60 70 72 75 85
    4096 x 1536   8      60
    ------------------------------------------------------------------
    1280 x  480  16      60 70 72 75 85 100 120 140 144 150 170 200 240
    1600 x  600  16      60 70 72 75 85 100 120 140 144 150 170 200 240
    2048 x  768  16      60 70 72 75 85 100 120 140 144 150 170 200 240
    2304 x  864  16      60 70 72 75 85 100 120 140 144 150 170 200
    2560 x  720  16      60
    2560 x  768  16      60 70 72 75 85 100 120 140 144 150 170
    2560 x  800  16      60 70 72 75 85 100 120 140 144 150 170
    2560 x  960  16      60 70 72 75 85 100 120 140 144 150 170
    2560 x 1024  16      60 70 72 75 85 100 120 140 144 150 170
    2720 x  768  16      60 70 72 75 85 100 120 140 144 150 170
    3200 x  900  16      60 70 72 75 85 100 120 140 144 150
    3200 x 1024  16      60 70 72 75 85 100 120
    3200 x 1200  16      60 70 72 75 85 100 120
    3360 x 1050  16      60
    3840 x 1080  16      60
    3840 x 1200  16      60 70 72 75 85 100
    3840 x 1440  16      60 70 72 75 85
    4096 x 1536  16      60
    ------------------------------------------------------------------
    1280 x  480  32      60 70 72 75 85 100 120 140 144 150 170 200 240
    1600 x  600  32      60 70 72 75 85 100 120 140 144 150 170 200 240
    2048 x  768  32      60 70 72 75 85 100 120 140 144 150 170 200 240
    2304 x  864  32      60 70 72 75 85 100 120 140 144 150 170 200
    2560 x  720  32      60
    2560 x  768  32      60 70 72 75 85 100 120 140 144 150 170
    2560 x  800  32      60 70 72 75 85 100 120 140 144 150 170
    2560 x  960  32      60 70 72 75 85 100 120 140 144 150 170
    2560 x 1024  32      60 70 72 75 85 100 120 140 144 150 170
    2720 x  768  32      60 70 72 75 85 100 120 140 144 150 170
    3200 x  900  32      60 70 72 75 85 100 120 140 144 150
    3200 x 1024  32      60 70 72 75 85 100 120
    3200 x 1200  32      60 70 72 75 85 100 120
    3360 x 1050  32      60
    3840 x 1080  32      60
    3840 x 1200  32      60 70 72 75 85 100
    3840 x 1440  32      60 70 72 75 85
    4096 x 1536  32      60

  ; Vertical Spanning Modes

     640 x  960   8      60 70 72 75 85 100 120 140 144 150 170 200 240
     800 x 1200   8      60 70 72 75 85 100 120 140 144 150 170 200 240
    1024 x 1536   8      60 70 72 75 85 100 120 140 144 150 170 200 240
    1152 x 1728   8      60 70 72 75 85 100 120 140 144 150 170 200
    1280 x 1440   8      60
    1280 x 1536   8      60 70 72 75 85 100 120 140 144 150 170
    1280 x 1600   8      60 70 72 75 85 100 120 140 144 150 170
    1280 x 1920   8      60 70 72 75 85 100 120 140 144 150 170
    1280 x 2048   8      60 70 72 75 85 100 120 140 144 150 170
    1360 x 1536   8      60 70 72 75 85 100 120 140 144 150 170
    1600 x 1800   8      60 70 72 75 85 100 120 140 144 150
    1600 x 2048   8      60 70 72 75 85 100 120
    1600 x 2400   8      60 70 72 75 85 100 120
    1680 x 2100   8      60
    1920 x 2160   8      60
    1920 x 2400   8      60 70 72 75 85 100
    1920 x 2880   8      60 70 72 75 85
    2048 x 3072   8      60
    ------------------------------------------------------------------
     640 x  960  16      60 70 72 75 85 100 120 140 144 150 170 200 240
     800 x 1200  16      60 70 72 75 85 100 120 140 144 150 170 200 240
    1024 x 1536  16      60 70 72 75 85 100 120 140 144 150 170 200 240
    1152 x 1728  16      60 70 72 75 85 100 120 140 144 150 170 200
    1280 x 1440  16      60
    1280 x 1536  16      60 70 72 75 85 100 120 140 144 150 170
    1280 x 1600  16      60 70 72 75 85 100 120 140 144 150 170
    1280 x 1920  16      60 70 72 75 85 100 120 140 144 150 170
    1280 x 2048  16      60 70 72 75 85 100 120 140 144 150 170
    1360 x 1536  16      60 70 72 75 85 100 120 140 144 150 170
    1600 x 1800  16      60 70 72 75 85 100 120 140 144 150
    1600 x 2048  16      60 70 72 75 85 100 120
    1600 x 2400  16      60 70 72 75 85 100 120
    1680 x 2100  16      60
    1920 x 2160  16      60
    1920 x 2400  16      60 70 72 75 85 100
    1920 x 2880  16      60 70 72 75 85
    2048 x 3072  16      60
    ------------------------------------------------------------------
     640 x  960  32      60 70 72 75 85 100 120 140 144 150 170 200 240
     800 x 1200  32      60 70 72 75 85 100 120 140 144 150 170 200 240
    1024 x 1536  32      60 70 72 75 85 100 120 140 144 150 170 200 240
    1152 x 1728  32      60 70 72 75 85 100 120 140 144 150 170 200
    1280 x 1440  32      60
    1280 x 1536  32      60 70 72 75 85 100 120 140 144 150 170
    1280 x 1600  32      60 70 72 75 85 100 120 140 144 150 170
    1280 x 1920  32      60 70 72 75 85 100 120 140 144 150 170
    1280 x 2048  32      60 70 72 75 85 100 120 140 144 150 170
    1360 x 1536  32      60 70 72 75 85 100 120 140 144 150 170
    1600 x 1800  32      60 70 72 75 85 100 120 140 144 150
    1600 x 2048  32      60 70 72 75 85 100 120
    1600 x 2400  32      60 70 72 75 85 100 120
    1680 x 2100  32      60
    1920 x 2160  32      60
    1920 x 2400  32      60 70 72 75 85 100
    1920 x 2880  32      60 70 72 75 85
    2048 x 3072  32      60

  ////////////////////////////////////////////////////////////////////
  // 0191 - NVIDIA GeForce 8800 GTX
  // 0193 - NVIDIA GeForce 8800 GTS
  // 0194 - NVIDIA GeForce 8800 Ultra
  // 0197 - NVIDIA Tesla C870
  // 019D - NVIDIA Quadro FX 5600
  // 019E - NVIDIA Quadro FX 4600
  // 0400 - NVIDIA GeForce 8600 GTS
  // 0401 - NVIDIA GeForce 8600 GT
  // 0402 - NVIDIA GeForce 8600 GT
  // 0403 - NVIDIA GeForce 8600 GS
  // 0404 - NVIDIA GeForce 8400 GS
  // 0406 - NVIDIA GeForce 8300 GS
  // 040A - NVIDIA Quadro FX 370
  // 040E - NVIDIA Quadro FX 570
  // 040F - NVIDIA Quadro FX 1700
  // 0410 - NVIDIA GeForce GT 330
  // 0420 - NVIDIA GeForce 8400 SE
  // 0421 - NVIDIA GeForce 8500 GT
  // 0422 - NVIDIA GeForce 8400 GS
  // 0423 - NVIDIA GeForce 8300 GS
  // 0424 - NVIDIA GeForce 8400 GS
  // 042C - NVIDIA GeForce 9400 GT
  // 042F - NVIDIA Quadro NVS 290
  // 05E0 - NVIDIA GeForce GTX 295
  // 05E1 - NVIDIA GeForce GTX 280
  // 05E2 - NVIDIA GeForce GTX 260
  // 05E3 - NVIDIA GeForce GTX 285
  // 05E6 - NVIDIA GeForce GTX 275
  // 05E7 - NVIDIA Tesla C1060/Tesla T10 Processor/Tesla M1060
  // 05EA - NVIDIA GeForce GTX 260
  // 05EB - NVIDIA GeForce GTX 295
  // 05F9 - NVIDIA Quadro CX
  // 05FD - NVIDIA Quadro FX 5800
  // 05FE - NVIDIA Quadro FX 4800
  // 05FF - NVIDIA Quadro FX 3800
  // 0600 - NVIDIA GeForce 8800 GTS 512
  // 0601 - NVIDIA GeForce 9800 GT
  // 0602 - NVIDIA GeForce 8800 GT
  // 0603 - NVIDIA GeForce GT 230
  // 0604 - NVIDIA GeForce 9800 GX2
  // 0605 - NVIDIA GeForce 9800 GT
  // 0606 - NVIDIA GeForce 8800 GS
  // 0607 - NVIDIA GeForce GTS 240
  // 0610 - NVIDIA GeForce 9600 GSO
  // 0611 - NVIDIA GeForce 8800 GT
  // 0612 - NVIDIA GeForce 9800 GTX/9800 GTX+
  // 0613 - NVIDIA GeForce 9800 GTX+
  // 0614 - NVIDIA GeForce 9800 GT
  // 0615 - NVIDIA GeForce GTS 250
  // 0619 - NVIDIA Quadro FX 4700 X2
  // 061A - NVIDIA Quadro FX 3700
  // 061B - NVIDIA Quadro VX 200
  // 0622 - NVIDIA GeForce 9600 GT
  // 0623 - NVIDIA GeForce 9600 GS
  // 0625 - NVIDIA GeForce 9600 GSO 512
  // 0626 - NVIDIA GeForce GT 130
  // 0627 - NVIDIA GeForce GT 140
  // 062E - NVIDIA GeForce 9600 GT
  // 062F - NVIDIA GeForce 9800 S
  // 0635 - NVIDIA GeForce 9600 GSO
  // 0637 - NVIDIA GeForce 9600 GT
  // 0638 - NVIDIA Quadro FX 1800
  // 0640 - NVIDIA GeForce 9500 GT
  // 0641 - NVIDIA GeForce 9400 GT
  // 0643 - NVIDIA GeForce 9500 GT
  // 0644 - NVIDIA GeForce 9500 GS
  // 0645 - NVIDIA GeForce 9500 GS
  // 0646 - NVIDIA GeForce GT 120
  // 0658 - NVIDIA Quadro FX 380
  // 0659 - NVIDIA Quadro FX 580
  // 065B - NVIDIA GeForce 9400 GT
  // 065F - NVIDIA GeForce G210
  // 06C0 - NVIDIA GeForce GTX 480
  // 06C4 - NVIDIA GeForce GTX 465
  // 06CD - NVIDIA GeForce GTX 470
  // 06E0 - NVIDIA GeForce 9300 GE
  // 06E1 - NVIDIA GeForce 9300 GS
  // 06E2 - NVIDIA GeForce 8400
  // 06E3 - NVIDIA GeForce 8400 SE
  // 06E4 - NVIDIA GeForce 8400 GS
  // 06E6 - NVIDIA GeForce G100
  // 06E7 - NVIDIA GeForce 9300 SE
  // 06E9 - NVIDIA GeForce 9300M GS
  // 06F8 - NVIDIA Quadro NVS 420
  // 06F9 - NVIDIA Quadro FX 370 LP
  // 06FA - NVIDIA Quadro NVS 450
  // 06FD - NVIDIA Quadro NVS 295
  // 06FF - NVIDIA HICx16 + Graphics/HICx8 + Graphics
  // 0846 - NVIDIA GeForce 9200
  // 0847 - NVIDIA GeForce 9100
  // 0848 - NVIDIA GeForce 8300
  // 0849 - NVIDIA GeForce 8200
  // 084A - NVIDIA nForce 730a
  // 084B - NVIDIA GeForce 9200
  // 084C - NVIDIA nForce 980a/780a SLI
  // 084D - NVIDIA nForce 750a SLI
  // 084F - NVIDIA GeForce 8100 / nForce 720a
  // 0860 - NVIDIA GeForce 9400
  // 0861 - NVIDIA GeForce 9400
  // 0864 - NVIDIA GeForce 9300
  // 0865 - NVIDIA ION
  // 0868 - NVIDIA nForce 760i SLI
  // 086A - NVIDIA GeForce 9400
  // 086C - NVIDIA GeForce 9300 / nForce 730i
  // 086D - NVIDIA GeForce 9200
  // 0871 - NVIDIA GeForce 9200
  // 0874 - NVIDIA ION
  // 0876 - NVIDIA ION
  // 087A - NVIDIA GeForce 9400
  // 087D - NVIDIA ION
  // 087E - NVIDIA ION LE
  // 087F - NVIDIA ION LE
  // 0A20 - NVIDIA GeForce GT 220
  // 0A23 - NVIDIA GeForce 210
  // 0A60 - NVIDIA GeForce G210
  // 0A62 - NVIDIA GeForce 205
  // 0A64 - NVIDIA ION
  // 0A65 - NVIDIA GeForce 210
  // 0A78 - NVIDIA Quadro FX 380 LP
  // 0CA0 - NVIDIA GeForce GT 330
  // 0CA2 - NVIDIA GeForce GT 320
  // 0CA3 - NVIDIA GeForce GT 240
  // 0CA4 - NVIDIA GeForce GT 340
  // 0CA5 - NVIDIA GeForce GT 220
  // 0CA7 - NVIDIA GeForce GT 330
  // 0CAC - NVIDIA GeForce GT 220
  // 0DC4 - NVIDIA GeForce GTS 450
  // 0DE0 - NVIDIA GeForce GT 440
  // 0DE1 - NVIDIA GeForce GT 430
  // 0E22 - NVIDIA GeForce GTX 460
  // 0E23 - NVIDIA GeForce GTX 460 SE
  // 1040 - NVIDIA GeForce GT 520
  // 1050 - NVIDIA GeForce GT 520M
  // 1080 - NVIDIA GeForce GTX 580
  // 1081 - NVIDIA GeForce GTX 570
  // 1086 - NVIDIA GeForce GTX 570
  // 10C0 - NVIDIA GeForce 9300 GS
  // 10C3 - NVIDIA GeForce 8400GS
  // 10C5 - NVIDIA GeForce 405
  // 1200 - NVIDIA GeForce GTX 560 Ti
  // 1201 - NVIDIA GeForce GTX 560
  // 1205 - NVIDIA GeForce GTX 460 v2
  // 1243 - NVIDIA GeForce GT 545
  // 1244 - NVIDIA GeForce GTX 550 Ti
  // 1245 - NVIDIA GeForce GTS 450
  ////////////////////////////////////////////////////////////////////

  ; Standard Modes

     640 x  480   8      60 70 72 75 85 100 120 140 144 150 170 200 240
     720 x  480   8      60
     720 x  576   8   50
     800 x  600   8      60 70 72 75 85 100 120 140 144 150 170 200 240
    1024 x  768   8      60 70 72 75 85 100 120 140 144 150 170 200 240
    1152 x  864   8      60 70 72 75 85 100 120 140 144 150 170 200
    1280 x  720   8      60
    1280 x  768   8      60 70 72 75 85 100 120 140 144 150 170
    1280 x  800   8      60 70 72 75 85 100 120 140 144 150 170
    1280 x  960   8      60 70 72 75 85 100 120 140 144 150 170
    1280 x 1024   8      60 70 72 75 85 100 120 140 144 150 170
    1360 x  768   8      60 70 72 75 85 100 120 140 144 150 170
    1600 x  900   8      60 70 72 75 85 100 120 140 144 150
    1600 x 1024   8      60 70 72 75 85 100 120
    1600 x 1200   8      60 70 72 75 85 100 120
    1680 x 1050   8      60
    1920 x 1080   8      60
    1920 x 1200   8      60 70 72 75 85 100
    1920 x 1440   8      60 70 72 75 85
    2048 x 1536   8      60
    ------------------------------------------------------------------
     640 x  480  16      60 70 72 75 85 100 120 140 144 150 170 200 240
     720 x  480  16      60
     720 x  576  16   50
     800 x  600  16      60 70 72 75 85 100 120 140 144 150 170 200 240
    1024 x  768  16      60 70 72 75 85 100 120 140 144 150 170 200 240
    1152 x  864  16      60 70 72 75 85 100 120 140 144 150 170 200
    1280 x  720  16      60
    1280 x  768  16      60 70 72 75 85 100 120 140 144 150 170
    1280 x  800  16      60 70 72 75 85 100 120 140 144 150 170
    1280 x  960  16      60 70 72 75 85 100 120 140 144 150 170
    1280 x 1024  16      60 70 72 75 85 100 120 140 144 150 170
    1360 x  768  16      60 70 72 75 85 100 120 140 144 150 170
    1600 x  900  16      60 70 72 75 85 100 120 140 144 150
    1600 x 1024  16      60 70 72 75 85 100 120
    1600 x 1200  16      60 70 72 75 85 100 120
    1680 x 1050  16      60
    1920 x 1080  16      60
    1920 x 1200  16      60 70 72 75 85 100
    1920 x 1440  16      60 70 72 75 85
    2048 x 1536  16      60
    ------------------------------------------------------------------
     640 x  480  32      60 70 72 75 85 100 120 140 144 150 170 200 240
     720 x  480  32      60
     720 x  576  32   50
     800 x  600  32      60 70 72 75 85 100 120 140 144 150 170 200 240
    1024 x  768  32      60 70 72 75 85 100 120 140 144 150 170 200 240
    1152 x  864  32      60 70 72 75 85 100 120 140 144 150 170 200
    1280 x  720  32      60
    1280 x  768  32      60 70 72 75 85 100 120 140 144 150 170
    1280 x  800  32      60 70 72 75 85 100 120 140 144 150 170
    1280 x  960  32      60 70 72 75 85 100 120 140 144 150 170
    1280 x 1024  32      60 70 72 75 85 100 120 140 144 150 170
    1360 x  768  32      60 70 72 75 85 100 120 140 144 150 170
    1600 x  900  32      60 70 72 75 85 100 120 140 144 150
    1600 x 1024  32      60 70 72 75 85 100 120
    1600 x 1200  32      60 70 72 75 85 100 120
    1680 x 1050  32      60
    1920 x 1080  32      60
    1920 x 1200  32      60 70 72 75 85 100
    1920 x 1440  32      60 70 72 75 85
    2048 x 1536  32      60
    ------------------------------------------------------------------
     640 x  480  64      60 70 72 75 85 100 120 140 144 150 170 200 240
     720 x  480  64      60
     720 x  576  64   50
     800 x  600  64      60 70 72 75 85 100 120 140 144 150 170 200 240
    1024 x  768  64      60 70 72 75 85 100 120 140 144 150 170 200 240
    1152 x  864  64      60 70 72 75 85 100 120 140 144 150 170 200
    1280 x  720  64      60
    1280 x  768  64      60 70 72 75 85 100 120 140 144 150 170
    1280 x  800  64      60 70 72 75 85 100 120 140 144 150 170
    1280 x  960  64      60 70 72 75 85 100 120 140 144 150 170
    1280 x 1024  64      60 70 72 75 85 100 120 140 144 150 170
    1360 x  768  64      60 70 72 75 85 100 120 140 144 150 170
    1600 x  900  64      60 70 72 75 85 100 120 140 144 150
    1600 x 1024  64      60 70 72 75 85 100 120
    1600 x 1200  64      60 70 72 75 85 100 120
    1680 x 1050  64      60
    1920 x 1080  64      60
    1920 x 1200  64      60 70 72 75 85 100
    1920 x 1440  64      60 70 72 75 85
    2048 x 1536  64      60

  ; Horizontal Spanning Modes

    1280 x  480   8      60 70 72 75 85 100 120 140 144 150 170 200 240
    1600 x  600   8      60 70 72 75 85 100 120 140 144 150 170 200 240
    2048 x  768   8      60 70 72 75 85 100 120 140 144 150 170 200 240
    2304 x  864   8      60 70 72 75 85 100 120 140 144 150 170 200
    2560 x  720   8      60
    2560 x  768   8      60 70 72 75 85 100 120 140 144 150 170
    2560 x  800   8      60 70 72 75 85 100 120 140 144 150 170
    2560 x  960   8      60 70 72 75 85 100 120 140 144 150 170
    2560 x 1024   8      60 70 72 75 85 100 120 140 144 150 170
    2720 x  768   8      60 70 72 75 85 100 120 140 144 150 170
    3200 x  900   8      60 70 72 75 85 100 120 140 144 150
    3200 x 1024   8      60 70 72 75 85 100 120
    3200 x 1200   8      60 70 72 75 85 100 120
    3360 x 1050   8      60
    3840 x 1080   8      60
    3840 x 1200   8      60 70 72 75 85 100
    3840 x 1440   8      60 70 72 75 85
    4096 x 1536   8      60
    ------------------------------------------------------------------
    1280 x  480  16      60 70 72 75 85 100 120 140 144 150 170 200 240
    1600 x  600  16      60 70 72 75 85 100 120 140 144 150 170 200 240
    2048 x  768  16      60 70 72 75 85 100 120 140 144 150 170 200 240
    2304 x  864  16      60 70 72 75 85 100 120 140 144 150 170 200
    2560 x  720  16      60
    2560 x  768  16      60 70 72 75 85 100 120 140 144 150 170
    2560 x  800  16      60 70 72 75 85 100 120 140 144 150 170
    2560 x  960  16      60 70 72 75 85 100 120 140 144 150 170
    2560 x 1024  16      60 70 72 75 85 100 120 140 144 150 170
    2720 x  768  16      60 70 72 75 85 100 120 140 144 150 170
    3200 x  900  16      60 70 72 75 85 100 120 140 144 150
    3200 x 1024  16      60 70 72 75 85 100 120
    3200 x 1200  16      60 70 72 75 85 100 120
    3360 x 1050  16      60
    3840 x 1080  16      60
    3840 x 1200  16      60 70 72 75 85 100
    3840 x 1440  16      60 70 72 75 85
    4096 x 1536  16      60
    ------------------------------------------------------------------
    1280 x  480  32      60 70 72 75 85 100 120 140 144 150 170 200 240
    1600 x  600  32      60 70 72 75 85 100 120 140 144 150 170 200 240
    2048 x  768  32      60 70 72 75 85 100 120 140 144 150 170 200 240
    2304 x  864  32      60 70 72 75 85 100 120 140 144 150 170 200
    2560 x  720  32      60
    2560 x  768  32      60 70 72 75 85 100 120 140 144 150 170
    2560 x  800  32      60 70 72 75 85 100 120 140 144 150 170
    2560 x  960  32      60 70 72 75 85 100 120 140 144 150 170
    2560 x 1024  32      60 70 72 75 85 100 120 140 144 150 170
    2720 x  768  32      60 70 72 75 85 100 120 140 144 150 170
    3200 x  900  32      60 70 72 75 85 100 120 140 144 150
    3200 x 1024  32      60 70 72 75 85 100 120
    3200 x 1200  32      60 70 72 75 85 100 120
    3360 x 1050  32      60
    3840 x 1080  32      60
    3840 x 1200  32      60 70 72 75 85 100
    3840 x 1440  32      60 70 72 75 85
    4096 x 1536  32      60
    ------------------------------------------------------------------
    1280 x  480  64      60 70 72 75 85 100 120 140 144 150 170 200 240
    1600 x  600  64      60 70 72 75 85 100 120 140 144 150 170 200 240
    2048 x  768  64      60 70 72 75 85 100 120 140 144 150 170 200 240
    2304 x  864  64      60 70 72 75 85 100 120 140 144 150 170 200
    2560 x  720  64      60
    2560 x  768  64      60 70 72 75 85 100 120 140 144 150 170
    2560 x  800  64      60 70 72 75 85 100 120 140 144 150 170
    2560 x  960  64      60 70 72 75 85 100 120 140 144 150 170
    2560 x 1024  64      60 70 72 75 85 100 120 140 144 150 170
    2720 x  768  64      60 70 72 75 85 100 120 140 144 150 170
    3200 x  900  64      60 70 72 75 85 100 120 140 144 150
    3200 x 1024  64      60 70 72 75 85 100 120
    3200 x 1200  64      60 70 72 75 85 100 120
    3360 x 1050  64      60
    3840 x 1080  64      60
    3840 x 1200  64      60 70 72 75 85 100
    3840 x 1440  64      60 70 72 75 85
    4096 x 1536  64      60

  ; Vertical Spanning Modes

     640 x  960   8      60 70 72 75 85 100 120 140 144 150 170 200 240
     800 x 1200   8      60 70 72 75 85 100 120 140 144 150 170 200 240
    1024 x 1536   8      60 70 72 75 85 100 120 140 144 150 170 200 240
    1152 x 1728   8      60 70 72 75 85 100 120 140 144 150 170 200
    1280 x 1440   8      60
    1280 x 1536   8      60 70 72 75 85 100 120 140 144 150 170
    1280 x 1600   8      60 70 72 75 85 100 120 140 144 150 170
    1280 x 1920   8      60 70 72 75 85 100 120 140 144 150 170
    1280 x 2048   8      60 70 72 75 85 100 120 140 144 150 170
    1360 x 1536   8      60 70 72 75 85 100 120 140 144 150 170
    1600 x 1800   8      60 70 72 75 85 100 120 140 144 150
    1600 x 2048   8      60 70 72 75 85 100 120
    1600 x 2400   8      60 70 72 75 85 100 120
    1680 x 2100   8      60
    1920 x 2160   8      60
    1920 x 2400   8      60 70 72 75 85 100
    1920 x 2880   8      60 70 72 75 85
    2048 x 3072   8      60
    ------------------------------------------------------------------
     640 x  960  16      60 70 72 75 85 100 120 140 144 150 170 200 240
     800 x 1200  16      60 70 72 75 85 100 120 140 144 150 170 200 240
    1024 x 1536  16      60 70 72 75 85 100 120 140 144 150 170 200 240
    1152 x 1728  16      60 70 72 75 85 100 120 140 144 150 170 200
    1280 x 1440  16      60
    1280 x 1536  16      60 70 72 75 85 100 120 140 144 150 170
    1280 x 1600  16      60 70 72 75 85 100 120 140 144 150 170
    1280 x 1920  16      60 70 72 75 85 100 120 140 144 150 170
    1280 x 2048  16      60 70 72 75 85 100 120 140 144 150 170
    1360 x 1536  16      60 70 72 75 85 100 120 140 144 150 170
    1600 x 1800  16      60 70 72 75 85 100 120 140 144 150
    1600 x 2048  16      60 70 72 75 85 100 120
    1600 x 2400  16      60 70 72 75 85 100 120
    1680 x 2100  16      60
    1920 x 2160  16      60
    1920 x 2400  16      60 70 72 75 85 100
    1920 x 2880  16      60 70 72 75 85
    2048 x 3072  16      60
    ------------------------------------------------------------------
     640 x  960  32      60 70 72 75 85 100 120 140 144 150 170 200 240
     800 x 1200  32      60 70 72 75 85 100 120 140 144 150 170 200 240
    1024 x 1536  32      60 70 72 75 85 100 120 140 144 150 170 200 240
    1152 x 1728  32      60 70 72 75 85 100 120 140 144 150 170 200
    1280 x 1440  32      60
    1280 x 1536  32      60 70 72 75 85 100 120 140 144 150 170
    1280 x 1600  32      60 70 72 75 85 100 120 140 144 150 170
    1280 x 1920  32      60 70 72 75 85 100 120 140 144 150 170
    1280 x 2048  32      60 70 72 75 85 100 120 140 144 150 170
    1360 x 1536  32      60 70 72 75 85 100 120 140 144 150 170
    1600 x 1800  32      60 70 72 75 85 100 120 140 144 150
    1600 x 2048  32      60 70 72 75 85 100 120
    1600 x 2400  32      60 70 72 75 85 100 120
    1680 x 2100  32      60
    1920 x 2160  32      60
    1920 x 2400  32      60 70 72 75 85 100
    1920 x 2880  32      60 70 72 75 85
    2048 x 3072  32      60
    ------------------------------------------------------------------
     640 x  960  64      60 70 72 75 85 100 120 140 144 150 170 200 240
     800 x 1200  64      60 70 72 75 85 100 120 140 144 150 170 200 240
    1024 x 1536  64      60 70 72 75 85 100 120 140 144 150 170 200 240
    1152 x 1728  64      60 70 72 75 85 100 120 140 144 150 170 200
    1280 x 1440  64      60
    1280 x 1536  64      60 70 72 75 85 100 120 140 144 150 170
    1280 x 1600  64      60 70 72 75 85 100 120 140 144 150 170
    1280 x 1920  64      60 70 72 75 85 100 120 140 144 150 170
    1280 x 2048  64      60 70 72 75 85 100 120 140 144 150 170
    1360 x 1536  64      60 70 72 75 85 100 120 140 144 150 170
    1600 x 1800  64      60 70 72 75 85 100 120 140 144 150
    1600 x 2048  64      60 70 72 75 85 100 120
    1600 x 2400  64      60 70 72 75 85 100 120
    1680 x 2100  64      60
    1920 x 2160  64      60
    1920 x 2400  64      60 70 72 75 85 100
    1920 x 2880  64      60 70 72 75 85
    2048 x 3072  64      60

[nv_commonDisplayModes_addreg__02]

  ////////////////////////////////////////////////////////////////////
  // 0191 - NVIDIA GeForce 8800 GTX
  // 0193 - NVIDIA GeForce 8800 GTS
  // 0194 - NVIDIA GeForce 8800 Ultra
  // 0197 - NVIDIA Tesla C870
  // 019D - NVIDIA Quadro FX 5600
  // 019E - NVIDIA Quadro FX 4600
  // 0400 - NVIDIA GeForce 8600 GTS
  // 0401 - NVIDIA GeForce 8600 GT
  // 0402 - NVIDIA GeForce 8600 GT
  // 0403 - NVIDIA GeForce 8600 GS
  // 0404 - NVIDIA GeForce 8400 GS
  // 0406 - NVIDIA GeForce 8300 GS
  // 040A - NVIDIA Quadro FX 370
  // 040E - NVIDIA Quadro FX 570
  // 040F - NVIDIA Quadro FX 1700
  // 0410 - NVIDIA GeForce GT 330
  // 0420 - NVIDIA GeForce 8400 SE
  // 0421 - NVIDIA GeForce 8500 GT
  // 0422 - NVIDIA GeForce 8400 GS
  // 0423 - NVIDIA GeForce 8300 GS
  // 0424 - NVIDIA GeForce 8400 GS
  // 042C - NVIDIA GeForce 9400 GT
  // 042F - NVIDIA Quadro NVS 290
  // 05E0 - NVIDIA GeForce GTX 295
  // 05E1 - NVIDIA GeForce GTX 280
  // 05E2 - NVIDIA GeForce GTX 260
  // 05E3 - NVIDIA GeForce GTX 285
  // 05E6 - NVIDIA GeForce GTX 275
  // 05E7 - NVIDIA Tesla C1060/Tesla T10 Processor/Tesla M1060
  // 05EA - NVIDIA GeForce GTX 260
  // 05EB - NVIDIA GeForce GTX 295
  // 05F9 - NVIDIA Quadro CX
  // 05FD - NVIDIA Quadro FX 5800
  // 05FE - NVIDIA Quadro FX 4800
  // 05FF - NVIDIA Quadro FX 3800
  // 0600 - NVIDIA GeForce 8800 GTS 512
  // 0601 - NVIDIA GeForce 9800 GT
  // 0602 - NVIDIA GeForce 8800 GT
  // 0603 - NVIDIA GeForce GT 230
  // 0604 - NVIDIA GeForce 9800 GX2
  // 0605 - NVIDIA GeForce 9800 GT
  // 0606 - NVIDIA GeForce 8800 GS
  // 0607 - NVIDIA GeForce GTS 240
  // 0610 - NVIDIA GeForce 9600 GSO
  // 0611 - NVIDIA GeForce 8800 GT
  // 0612 - NVIDIA GeForce 9800 GTX/9800 GTX+
  // 0613 - NVIDIA GeForce 9800 GTX+
  // 0614 - NVIDIA GeForce 9800 GT
  // 0615 - NVIDIA GeForce GTS 250
  // 0619 - NVIDIA Quadro FX 4700 X2
  // 061A - NVIDIA Quadro FX 3700
  // 061B - NVIDIA Quadro VX 200
  // 0622 - NVIDIA GeForce 9600 GT
  // 0623 - NVIDIA GeForce 9600 GS
  // 0625 - NVIDIA GeForce 9600 GSO 512
  // 0626 - NVIDIA GeForce GT 130
  // 0627 - NVIDIA GeForce GT 140
  // 062E - NVIDIA GeForce 9600 GT
  // 062F - NVIDIA GeForce 9800 S
  // 0635 - NVIDIA GeForce 9600 GSO
  // 0637 - NVIDIA GeForce 9600 GT
  // 0638 - NVIDIA Quadro FX 1800
  // 0640 - NVIDIA GeForce 9500 GT
  // 0641 - NVIDIA GeForce 9400 GT
  // 0643 - NVIDIA GeForce 9500 GT
  // 0644 - NVIDIA GeForce 9500 GS
  // 0645 - NVIDIA GeForce 9500 GS
  // 0646 - NVIDIA GeForce GT 120
  // 0658 - NVIDIA Quadro FX 380
  // 0659 - NVIDIA Quadro FX 580
  // 065B - NVIDIA GeForce 9400 GT
  // 065F - NVIDIA GeForce G210
  // 06C0 - NVIDIA GeForce GTX 480
  // 06C4 - NVIDIA GeForce GTX 465
  // 06CD - NVIDIA GeForce GTX 470
  // 06E0 - NVIDIA GeForce 9300 GE
  // 06E1 - NVIDIA GeForce 9300 GS
  // 06E2 - NVIDIA GeForce 8400
  // 06E3 - NVIDIA GeForce 8400 SE
  // 06E4 - NVIDIA GeForce 8400 GS
  // 06E6 - NVIDIA GeForce G100
  // 06E7 - NVIDIA GeForce 9300 SE
  // 06E9 - NVIDIA GeForce 9300M GS
  // 06F8 - NVIDIA Quadro NVS 420
  // 06F9 - NVIDIA Quadro FX 370 LP
  // 06FA - NVIDIA Quadro NVS 450
  // 06FD - NVIDIA Quadro NVS 295
  // 06FF - NVIDIA HICx16 + Graphics/HICx8 + Graphics
  // 0846 - NVIDIA GeForce 9200
  // 0847 - NVIDIA GeForce 9100
  // 0848 - NVIDIA GeForce 8300
  // 0849 - NVIDIA GeForce 8200
  // 084A - NVIDIA nForce 730a
  // 084B - NVIDIA GeForce 9200
  // 084C - NVIDIA nForce 980a/780a SLI
  // 084D - NVIDIA nForce 750a SLI
  // 084F - NVIDIA GeForce 8100 / nForce 720a
  // 0860 - NVIDIA GeForce 9400
  // 0861 - NVIDIA GeForce 9400
  // 0864 - NVIDIA GeForce 9300
  // 0865 - NVIDIA ION
  // 0868 - NVIDIA nForce 760i SLI
  // 086A - NVIDIA GeForce 9400
  // 086C - NVIDIA GeForce 9300 / nForce 730i
  // 086D - NVIDIA GeForce 9200
  // 0871 - NVIDIA GeForce 9200
  // 0874 - NVIDIA ION
  // 0876 - NVIDIA ION
  // 087A - NVIDIA GeForce 9400
  // 087D - NVIDIA ION
  // 087E - NVIDIA ION LE
  // 087F - NVIDIA ION LE
  // 0A20 - NVIDIA GeForce GT 220
  // 0A23 - NVIDIA GeForce 210
  // 0A60 - NVIDIA GeForce G210
  // 0A62 - NVIDIA GeForce 205
  // 0A64 - NVIDIA ION
  // 0A65 - NVIDIA GeForce 210
  // 0A78 - NVIDIA Quadro FX 380 LP
  // 0CA0 - NVIDIA GeForce GT 330
  // 0CA2 - NVIDIA GeForce GT 320
  // 0CA3 - NVIDIA GeForce GT 240
  // 0CA4 - NVIDIA GeForce GT 340
  // 0CA5 - NVIDIA GeForce GT 220
  // 0CA7 - NVIDIA GeForce GT 330
  // 0CAC - NVIDIA GeForce GT 220
  // 0DC4 - NVIDIA GeForce GTS 450
  // 0DE0 - NVIDIA GeForce GT 440
  // 0DE1 - NVIDIA GeForce GT 430
  // 0E22 - NVIDIA GeForce GTX 460
  // 0E23 - NVIDIA GeForce GTX 460 SE
  // 1040 - NVIDIA GeForce GT 520
  // 1050 - NVIDIA GeForce GT 520M
  // 1080 - NVIDIA GeForce GTX 580
  // 1081 - NVIDIA GeForce GTX 570
  // 1086 - NVIDIA GeForce GTX 570
  // 10C0 - NVIDIA GeForce 9300 GS
  // 10C3 - NVIDIA GeForce 8400GS
  // 10C5 - NVIDIA GeForce 405
  // 1200 - NVIDIA GeForce GTX 560 Ti
  // 1201 - NVIDIA GeForce GTX 560
  // 1205 - NVIDIA GeForce GTX 460 v2
  // 1243 - NVIDIA GeForce GT 545
  // 1244 - NVIDIA GeForce GTX 550 Ti
  // 1245 - NVIDIA GeForce GTS 450
  ////////////////////////////////////////////////////////////////////

  ; Standard Modes

     640 x  480   8      60 70 72 75 85 100 120 140 144 150 170 200 240
     720 x  480   8      60
     720 x  576   8   50
     800 x  600   8      60 70 72 75 85 100 120 140 144 150 170 200 240
    1024 x  768   8      60 70 72 75 85 100 120 140 144 150 170 200 240
    1152 x  864   8      60 70 72 75 85 100 120 140 144 150 170 200
    1280 x  720   8      60
    1280 x  768   8      60 70 72 75 85 100 120 140 144 150 170
    1280 x  800   8      60 70 72 75 85 100 120 140 144 150 170
    1280 x  960   8      60 70 72 75 85 100 120 140 144 150 170
    1280 x 1024   8      60 70 72 75 85 100 120 140 144 150 170
    1360 x  768   8      60 70 72 75 85 100 120 140 144 150 170
    1366 x  768   8      60 70 72 75 85 100 120 140 144 150 170
    1600 x  900   8      60 70 72 75 85 100 120 140 144 150
    1600 x 1024   8      60 70 72 75 85 100 120
    1600 x 1200   8      60 70 72 75 85 100 120
    1680 x 1050   8      60
    1920 x 1080   8      60
    1920 x 1200   8      60 70 72 75 85 100
    1920 x 1440   8      60 70 72 75 85
    2048 x 1536   8      60
    ------------------------------------------------------------------
     640 x  480  16      60 70 72 75 85 100 120 140 144 150 170 200 240
     720 x  480  16      60
     720 x  576  16   50
     800 x  600  16      60 70 72 75 85 100 120 140 144 150 170 200 240
    1024 x  768  16      60 70 72 75 85 100 120 140 144 150 170 200 240
    1152 x  864  16      60 70 72 75 85 100 120 140 144 150 170 200
    1280 x  720  16      60
    1280 x  768  16      60 70 72 75 85 100 120 140 144 150 170
    1280 x  800  16      60 70 72 75 85 100 120 140 144 150 170
    1280 x  960  16      60 70 72 75 85 100 120 140 144 150 170
    1280 x 1024  16      60 70 72 75 85 100 120 140 144 150 170
    1360 x  768  16      60 70 72 75 85 100 120 140 144 150 170
    1366 x  768  16      60 70 72 75 85 100 120 140 144 150 170
    1600 x  900  16      60 70 72 75 85 100 120 140 144 150
    1600 x 1024  16      60 70 72 75 85 100 120
    1600 x 1200  16      60 70 72 75 85 100 120
    1680 x 1050  16      60
    1920 x 1080  16      60
    1920 x 1200  16      60 70 72 75 85 100
    1920 x 1440  16      60 70 72 75 85
    2048 x 1536  16      60
    ------------------------------------------------------------------
     640 x  480  32      60 70 72 75 85 100 120 140 144 150 170 200 240
     720 x  480  32      60
     720 x  576  32   50
     800 x  600  32      60 70 72 75 85 100 120 140 144 150 170 200 240
    1024 x  768  32      60 70 72 75 85 100 120 140 144 150 170 200 240
    1152 x  864  32      60 70 72 75 85 100 120 140 144 150 170 200
    1280 x  720  32      60
    1280 x  768  32      60 70 72 75 85 100 120 140 144 150 170
    1280 x  800  32      60 70 72 75 85 100 120 140 144 150 170
    1280 x  960  32      60 70 72 75 85 100 120 140 144 150 170
    1280 x 1024  32      60 70 72 75 85 100 120 140 144 150 170
    1360 x  768  32      60 70 72 75 85 100 120 140 144 150 170
    1366 x  768  32      60 70 72 75 85 100 120 140 144 150 170
    1600 x  900  32      60 70 72 75 85 100 120 140 144 150
    1600 x 1024  32      60 70 72 75 85 100 120
    1600 x 1200  32      60 70 72 75 85 100 120
    1680 x 1050  32      60
    1920 x 1080  32      60
    1920 x 1200  32      60 70 72 75 85 100
    1920 x 1440  32      60 70 72 75 85
    2048 x 1536  32      60
    ------------------------------------------------------------------
     640 x  480  64      60 70 72 75 85 100 120 140 144 150 170 200 240
     720 x  480  64      60
     720 x  576  64   50
     800 x  600  64      60 70 72 75 85 100 120 140 144 150 170 200 240
    1024 x  768  64      60 70 72 75 85 100 120 140 144 150 170 200 240
    1152 x  864  64      60 70 72 75 85 100 120 140 144 150 170 200
    1280 x  720  64      60
    1280 x  768  64      60 70 72 75 85 100 120 140 144 150 170
    1280 x  800  64      60 70 72 75 85 100 120 140 144 150 170
    1280 x  960  64      60 70 72 75 85 100 120 140 144 150 170
    1280 x 1024  64      60 70 72 75 85 100 120 140 144 150 170
    1360 x  768  64      60 70 72 75 85 100 120 140 144 150 170
    1366 x  768  64      60 70 72 75 85 100 120 140 144 150 170
    1600 x  900  64      60 70 72 75 85 100 120 140 144 150
    1600 x 1024  64      60 70 72 75 85 100 120
    1600 x 1200  64      60 70 72 75 85 100 120
    1680 x 1050  64      60
    1920 x 1080  64      60
    1920 x 1200  64      60 70 72 75 85 100
    1920 x 1440  64      60 70 72 75 85
    2048 x 1536  64      60

  ; Horizontal Spanning Modes

    1280 x  480   8      60 70 72 75 85 100 120 140 144 150 170 200 240
    1600 x  600   8      60 70 72 75 85 100 120 140 144 150 170 200 240
    2048 x  768   8      60 70 72 75 85 100 120 140 144 150 170 200 240
    2304 x  864   8      60 70 72 75 85 100 120 140 144 150 170 200
    2560 x  720   8      60
    2560 x  768   8      60 70 72 75 85 100 120 140 144 150 170
    2560 x  800   8      60 70 72 75 85 100 120 140 144 150 170
    2560 x  960   8      60 70 72 75 85 100 120 140 144 150 170
    2560 x 1024   8      60 70 72 75 85 100 120 140 144 150 170
    2720 x  768   8      60 70 72 75 85 100 120 140 144 150 170
    2732 x  768   8      60 70 72 75 85 100 120 140 144 150 170
    3200 x  900   8      60 70 72 75 85 100 120 140 144 150
    3200 x 1024   8      60 70 72 75 85 100 120
    3200 x 1200   8      60 70 72 75 85 100 120
    3360 x 1050   8      60
    3840 x 1080   8      60
    3840 x 1200   8      60 70 72 75 85 100
    3840 x 1440   8      60 70 72 75 85
    4096 x 1536   8      60
    ------------------------------------------------------------------
    1280 x  480  16      60 70 72 75 85 100 120 140 144 150 170 200 240
    1600 x  600  16      60 70 72 75 85 100 120 140 144 150 170 200 240
    2048 x  768  16      60 70 72 75 85 100 120 140 144 150 170 200 240
    2304 x  864  16      60 70 72 75 85 100 120 140 144 150 170 200
    2560 x  720  16      60
    2560 x  768  16      60 70 72 75 85 100 120 140 144 150 170
    2560 x  800  16      60 70 72 75 85 100 120 140 144 150 170
    2560 x  960  16      60 70 72 75 85 100 120 140 144 150 170
    2560 x 1024  16      60 70 72 75 85 100 120 140 144 150 170
    2720 x  768  16      60 70 72 75 85 100 120 140 144 150 170
    2732 x  768  16      60 70 72 75 85 100 120 140 144 150 170
    3200 x  900  16      60 70 72 75 85 100 120 140 144 150
    3200 x 1024  16      60 70 72 75 85 100 120
    3200 x 1200  16      60 70 72 75 85 100 120
    3360 x 1050  16      60
    3840 x 1080  16      60
    3840 x 1200  16      60 70 72 75 85 100
    3840 x 1440  16      60 70 72 75 85
    4096 x 1536  16      60
    ------------------------------------------------------------------
    1280 x  480  32      60 70 72 75 85 100 120 140 144 150 170 200 240
    1600 x  600  32      60 70 72 75 85 100 120 140 144 150 170 200 240
    2048 x  768  32      60 70 72 75 85 100 120 140 144 150 170 200 240
    2304 x  864  32      60 70 72 75 85 100 120 140 144 150 170 200
    2560 x  720  32      60
    2560 x  768  32      60 70 72 75 85 100 120 140 144 150 170
    2560 x  800  32      60 70 72 75 85 100 120 140 144 150 170
    2560 x  960  32      60 70 72 75 85 100 120 140 144 150 170
    2560 x 1024  32      60 70 72 75 85 100 120 140 144 150 170
    2720 x  768  32      60 70 72 75 85 100 120 140 144 150 170
    2732 x  768  32      60 70 72 75 85 100 120 140 144 150 170
    3200 x  900  32      60 70 72 75 85 100 120 140 144 150
    3200 x 1024  32      60 70 72 75 85 100 120
    3200 x 1200  32      60 70 72 75 85 100 120
    3360 x 1050  32      60
    3840 x 1080  32      60
    3840 x 1200  32      60 70 72 75 85 100
    3840 x 1440  32      60 70 72 75 85
    4096 x 1536  32      60
    ------------------------------------------------------------------
    1280 x  480  64      60 70 72 75 85 100 120 140 144 150 170 200 240
    1600 x  600  64      60 70 72 75 85 100 120 140 144 150 170 200 240
    2048 x  768  64      60 70 72 75 85 100 120 140 144 150 170 200 240
    2304 x  864  64      60 70 72 75 85 100 120 140 144 150 170 200
    2560 x  720  64      60
    2560 x  768  64      60 70 72 75 85 100 120 140 144 150 170
    2560 x  800  64      60 70 72 75 85 100 120 140 144 150 170
    2560 x  960  64      60 70 72 75 85 100 120 140 144 150 170
    2560 x 1024  64      60 70 72 75 85 100 120 140 144 150 170
    2720 x  768  64      60 70 72 75 85 100 120 140 144 150 170
    2732 x  768  64      60 70 72 75 85 100 120 140 144 150 170
    3200 x  900  64      60 70 72 75 85 100 120 140 144 150
    3200 x 1024  64      60 70 72 75 85 100 120
    3200 x 1200  64      60 70 72 75 85 100 120
    3360 x 1050  64      60
    3840 x 1080  64      60
    3840 x 1200  64      60 70 72 75 85 100
    3840 x 1440  64      60 70 72 75 85
    4096 x 1536  64      60

  ; Vertical Spanning Modes

     640 x  960   8      60 70 72 75 85 100 120 140 144 150 170 200 240
     800 x 1200   8      60 70 72 75 85 100 120 140 144 150 170 200 240
    1024 x 1536   8      60 70 72 75 85 100 120 140 144 150 170 200 240
    1152 x 1728   8      60 70 72 75 85 100 120 140 144 150 170 200
    1280 x 1440   8      60
    1280 x 1536   8      60 70 72 75 85 100 120 140 144 150 170
    1280 x 1600   8      60 70 72 75 85 100 120 140 144 150 170
    1280 x 1920   8      60 70 72 75 85 100 120 140 144 150 170
    1280 x 2048   8      60 70 72 75 85 100 120 140 144 150 170
    1360 x 1536   8      60 70 72 75 85 100 120 140 144 150 170
    1366 x 1536   8      60 70 72 75 85 100 120 140 144 150 170
    1600 x 1800   8      60 70 72 75 85 100 120 140 144 150
    1600 x 2048   8      60 70 72 75 85 100 120
    1600 x 2400   8      60 70 72 75 85 100 120
    1680 x 2100   8      60
    1920 x 2160   8      60
    1920 x 2400   8      60 70 72 75 85 100
    1920 x 2880   8      60 70 72 75 85
    2048 x 3072   8      60
    ------------------------------------------------------------------
     640 x  960  16      60 70 72 75 85 100 120 140 144 150 170 200 240
     800 x 1200  16      60 70 72 75 85 100 120 140 144 150 170 200 240
    1024 x 1536  16      60 70 72 75 85 100 120 140 144 150 170 200 240
    1152 x 1728  16      60 70 72 75 85 100 120 140 144 150 170 200
    1280 x 1440  16      60
    1280 x 1536  16      60 70 72 75 85 100 120 140 144 150 170
    1280 x 1600  16      60 70 72 75 85 100 120 140 144 150 170
    1280 x 1920  16      60 70 72 75 85 100 120 140 144 150 170
    1280 x 2048  16      60 70 72 75 85 100 120 140 144 150 170
    1360 x 1536  16      60 70 72 75 85 100 120 140 144 150 170
    1366 x 1536  16      60 70 72 75 85 100 120 140 144 150 170
    1600 x 1800  16      60 70 72 75 85 100 120 140 144 150
    1600 x 2048  16      60 70 72 75 85 100 120
    1600 x 2400  16      60 70 72 75 85 100 120
    1680 x 2100  16      60
    1920 x 2160  16      60
    1920 x 2400  16      60 70 72 75 85 100
    1920 x 2880  16      60 70 72 75 85
    2048 x 3072  16      60
    ------------------------------------------------------------------
     640 x  960  32      60 70 72 75 85 100 120 140 144 150 170 200 240
     800 x 1200  32      60 70 72 75 85 100 120 140 144 150 170 200 240
    1024 x 1536  32      60 70 72 75 85 100 120 140 144 150 170 200 240
    1152 x 1728  32      60 70 72 75 85 100 120 140 144 150 170 200
    1280 x 1440  32      60
    1280 x 1536  32      60 70 72 75 85 100 120 140 144 150 170
    1280 x 1600  32      60 70 72 75 85 100 120 140 144 150 170
    1280 x 1920  32      60 70 72 75 85 100 120 140 144 150 170
    1280 x 2048  32      60 70 72 75 85 100 120 140 144 150 170
    1360 x 1536  32      60 70 72 75 85 100 120 140 144 150 170
    1366 x 1536  32      60 70 72 75 85 100 120 140 144 150 170
    1600 x 1800  32      60 70 72 75 85 100 120 140 144 150
    1600 x 2048  32      60 70 72 75 85 100 120
    1600 x 2400  32      60 70 72 75 85 100 120
    1680 x 2100  32      60
    1920 x 2160  32      60
    1920 x 2400  32      60 70 72 75 85 100
    1920 x 2880  32      60 70 72 75 85
    2048 x 3072  32      60
    ------------------------------------------------------------------
     640 x  960  64      60 70 72 75 85 100 120 140 144 150 170 200 240
     800 x 1200  64      60 70 72 75 85 100 120 140 144 150 170 200 240
    1024 x 1536  64      60 70 72 75 85 100 120 140 144 150 170 200 240
    1152 x 1728  64      60 70 72 75 85 100 120 140 144 150 170 200
    1280 x 1440  64      60
    1280 x 1536  64      60 70 72 75 85 100 120 140 144 150 170
    1280 x 1600  64      60 70 72 75 85 100 120 140 144 150 170
    1280 x 1920  64      60 70 72 75 85 100 120 140 144 150 170
    1280 x 2048  64      60 70 72 75 85 100 120 140 144 150 170
    1360 x 1536  64      60 70 72 75 85 100 120 140 144 150 170
    1366 x 1536  64      60 70 72 75 85 100 120 140 144 150 170
    1600 x 1800  64      60 70 72 75 85 100 120 140 144 150
    1600 x 2048  64      60 70 72 75 85 100 120
    1600 x 2400  64      60 70 72 75 85 100 120
    1680 x 2100  64      60
    1920 x 2160  64      60
    1920 x 2400  64      60 70 72 75 85 100
    1920 x 2880  64      60 70 72 75 85
    2048 x 3072  64      60
